ABAC (ATTRIBUTE-BASED ACCESS CONTROL),AAA
ABSOLUTE ADDRESSES,HS
ABSTRACT INTERPRETATION,SS
ABSTRACTION,SSL
ABUSE CASES,SSL
ACCEPTABLE INTERRUPTION WINDOW (AIW),SO
ACCEPTABLE RISK,RMG
ACCEPTABLE USE POLICY,HF
ACCEPTANCE TESTING,SSL
ACCEPTED WAYS FOR HANDLING RISK,RMG
ACCESS,AAA
ACCESS  CONTROL (AC) - LOGICAL,AAA
ACCESS - ABAC (ATTRIBUTE-BASED ACCESS CONTROL),AAA
ACCESS APPLICATION,AAA
ACCESS CONTROL,AAA;OSV
ACCESS CONTROL - ACCESS,AAA
ACCESS CONTROL - CBAC,AAA
ACCESS CONTROL - DAC (DISCRETIONARY ACCESS CONTROL),AAA
ACCESS CONTROL - DAC (DISCRETIONARY ACCESS CONTROL) - POLICY IMPLEMENTATION,AAA
ACCESS CONTROL - DAC (DISCRETIONARY ACCESS CONTROL) - RSBAC,AAA
ACCESS CONTROL - DEFINITION,AAA
ACCESS CONTROL - LOGICAL,AAA
ACCESS CONTROL - LOGICAL - EXECUTE,AAA
ACCESS CONTROL - LOGICAL - READ AND WRITE,AAA
ACCESS CONTROL - LOGICAL - READ ONLY,AAA
ACCESS CONTROL - MAC (MANDATORY ACCESS CONTROL),AAA
ACCESS CONTROL - MANAGERIAL,AAA
ACCESS CONTROL - MANAGERIAL - GUIDELINES,RMG
ACCESS CONTROL - MANAGERIAL - POLICY DOCUMENTS,RMG
ACCESS CONTROL - MANAGERIAL - POLICY LIFECYCLE,RMG
ACCESS CONTROL - MANAGERIAL - PROCEDURES,RMG
ACCESS CONTROL - MANAGERIAL - STANDARDS,RMG
ACCESS CONTROL - MATRIX,AAA
ACCESS CONTROL - MODEL,AAA
ACCESS CONTROL - NDAC (NON-DISCRETIONARY ACCESS CONTROL),AAA
ACCESS CONTROL - OBJECTS,AAA
ACCESS CONTROL - OPERATIONAL,OSV
ACCESS CONTROL - PUBLIC,AAA
ACCESS CONTROL - ROLE-BASED,AAA
ACCESS CONTROL - SUBJECTS,AAA
ACCESS CONTROL - TRBAC,AAA
ACCESS CONTROL IN DISTRIBUTED SYSTEMS,AAA
ACCESS CONTROL LIST,AAA
ACCESS CONTROL LIST (ACL),OSV
ACCESS CONTROL LISTS,OSV
ACCESS CONTROL LOGICS,AAA
ACCESS CONTROL MATRIX,AAA
ACCESS CONTROL MATRIX - BELL-LAPADULA MODEL,AAA
ACCESS CONTROL MODEL,AAA
ACCESS CONTROL TABLE,AAA
ACCESS DEFINITION,AAA
ACCESS METHOD,SO
ACCESS NETWORK,NS
ACCESS PATH,OSV
ACCESS REMOTE,DSS
ACCESS RIGHTS,AAA;OSV
ACCESS SYSTEM,AAA
ACCESS/ADMISSION CONTROL & ID MANAGEMENT,DSS
ACCOUNT MANAGEMENT,AAA
ACCOUNT VALIDATION,OSV
ACCOUNTABILITY,AAA;RMG
ACCOUNTABILITY - EXTERNAL PROGRAM DRIVERS FOR,LR
ACCOUNTABLE/ACCOUNTABILITY,AAA
ACCREDITATION,AAA;RMG
ACCREDITATION - MEASURING NUMBER OF SYSTEMS,RMG
ACCREDITATION - SYSTEM AUTHORIZATION AUTHORITY,SO
ACCREDITATION BOUNDARIES - ESTABLISHING,RMG
ACCURACY AS RECOVERY TEST METRIC,F
ACHIEVABLE GOALS,RMG
ACL (ACCESS CONTROL LIST),AAA
ACPO (ASSOCIATION OF CHIEF POLICE OFFERS),LR
ACPO GOOD PRACTICE GUIDE FOR DIGITAL EVIDENCE,F
ACQUISITION LIFECYCLE,SO
ACQUISITION/DEVELOPMENT PHASE,SO
ACQUISITIONS STRATEGY,SO
ACT (HIPAA),LR
ACTION PLAN - FOR IMPLEMENTATION OF INFORMATION SECURITY GOVERNANCE,RMG
ACTION PLAN - FOR INCIDENT MANAGEMENT,SO
ACTION PLAN - GAP ANALYSIS AS BASIS FOR,SO
ACTIONS ON OBJECTIVES,AB;MAT
ACTIVE ATTACK,AB
ACTIVE DETECTION,CPS
ACTIVE DIRECTORY DOMAIN SERVICES (ADDS),AAA
ACTIVE FAULT ATTACKS,HS
ACTIVEX,SSL;WAM
ACTOR-ORIENTED APPROACHES,RMG
ACTS OF WAR,CPS
AD HOC MODE,NS
ADAPTATION,AB
ADAPTATIONS OF SECURE SOFTWARE LIFECYCLE,SSL
ADDRESS - BUS,OSV
ADDRESS - RESOLUTION PROTOCOL (ARP),NS
ADDRESS - SPACE LAYOUT RANDOMIZATION (ASLR),OSV
ADDRESS BAR MANIPULATION ATTACKS,WAM
ADDRESS RESOLUTION PROTOCOL (ARP),NS
ADDRESS SPACE,NS
ADDRESS VARIANCE,DSS
ADDRESSING,NS
ADDRESSING - IP ,NS
ADDS (ACTIVE DIRECTORY DIRECTORY SERVICE),OSV
ADHERENCE TO USE CASES,SO
ADMINISTRATION OF SECURITY PROGRAMS,SO
ADMINISTRATIVE ACTIVITIES,SO
ADMINISTRATIVE ACTIVITIES - ACCEPTABLE USE POLICY,HF
ADMINISTRATIVE ACTIVITIES - CULTURE AND REGIONAL VARIANCES,LR
ADMINISTRATIVE ACTIVITIES - ETHICS AS,HF;LR
ADMINISTRATIVE ACTIVITIES - FOR INFORMATION SECURITY FRAMEWORK,RMG
ADMINISTRATIVE ACTIVITIES - LEGAL AND REGULATORY REQUIREMENTS AS,LR
ADMINISTRATIVE ACTIVITIES - PLAN-DO-CHECK-ACT AS,SO
ADMINISTRATIVE ACTIVITIES - PROGRAM DEVELOPMENT AS,RMG
ADMINISTRATIVE ACTIVITIES - PROGRAM MANAGEMENT EVALUATION,RMG
ADMINISTRATIVE ACTIVITIES - RISK MANAGEMENT AS,RMG
ADMINISTRATIVE ACTIVITIES - SECURITY AWARENESS TRAINING AND EDUCATION,HF
ADMINISTRATIVE ACTIVITIES - SECURITY PROBLEM MANAGEMENT,RMG
ADMINISTRATIVE CONTROLS,SO
ADMINISTRATIVE REQUIREMENTS,RMG
ADMISSION INTO EVIDENCE OF ELECTRONIC DOCUMENTS,LR
ADOPTION,WAM
ADS-B,PLS
ADVANCE FEE FRAUD,AB
ADVANCED ENCRYPTION STANDARD (AES),C
ADVANCED NETWORK SECURITY TOPICS,NS
ADVANCED PERSISTENT THREATS,MAT
ADVANCED PERSISTENT THREATS (APTS),AB
ADVANCED PROTOCOLS,C
ADWARE,MAT
ADWARE - BOTNETS,MAT
AEAD,C
AES,C
AES (ADVANCED ENCRYPTION STANDARD) - CCMP,C
AES (ADVANCED ENCRYPTION STANDARD) - RIJNDAEL,C
AFFILIATE PROGRAMMES,AB
AFTP (ANONYMOUS FILE TRANSFER PROTOCOL),NS
AGGREGATED RISK,RMG
AGGREGATION,OSV
AGILE AND DEVOPS,SSL
AGREEMENT,AAA;DSS
AGREEMENTS - INITIATION OF,SO
AH (AUTHENTICATION HEADER) PROTOCOL,NS
AICPA SERVICE ORGANIZATION (SOC) REPORTS,RMG
AICPA/CICA TRUST SERVICES,RMG
AIR TRAFFIC COMMUNICATION NETWORKS,PLS
AIW (ACCEPTABLE INTERRUPTION WINDOW),SO
AIW (ALLOWABLE INTERRUPTION WINDOW),SO
ALARM FATIGUE,HF
ALE (ANNUALIZED LOSS EXPECTANCY),RMG
ALERT CORRELATION,SO
ALERT MESSAGE LAYERS,SO
ALERT SITUATION,SO
ALERTS IN SECURITY INFORMATION AND EVENT MANAGEMENT,SO
ALGEBRAIC ATTACKS,C
ALGORITHMS,C;HS
ALGORITHMS - ASYMMETRIC,C
ALGORITHMS - CONFIDENTIAL MESSAGES,C
ALGORITHMS - DIFFIE-HELLMAN,C
ALGORITHMS - ECC (ELLIPTIC CURVE CRYPTOGRAPHY),C
ALGORITHMS - EL GAMAL,C
ALGORITHMS - ELLIPTIC CURVE CRYPTOSYSTEM,C
ALGORITHMS - ENCRYPTION,C
ALGORITHMS - OPEN MESSAGES,C
ALGORITHMS - RIJNDAEL,C
ALGORITHMS - RSA,C
ALGORITHMS - SYMMETRIC,C
ALIASING,SS
ALIVENESS,AAA
ALLOWABLE INTERRUPTION WINDOW (AIW),SO
ALPHA TESTING,SSL
ALTERNATE FACILITIES,SO
ALTERNATE PROCESS,SO
ALTERNATE ROUTING,NS
ALTERNATE SITE SELECTION,SO
ALTERNATIVE PROCESSING,SO
ALTERNATIVE ROUTING,NS
AMBIGUITY ANALYSIS,SSL
AMERICAN NATIONAL STANDARDS INSTITUTE (ANSI),RMG
AMOUNT AS RECOVERY TEST METRIC,F
ANALYSE: ANALYSIS METHODS,SO
ANALYSING THE EVIDENCE,AAA
ANALYSIS - NETWORK,F
ANALYSIS - SOFTWARE,F
ANALYSIS ENVIRONMENTS,MAT
ANALYSIS TECHNIQUES,MAT
ANALYTIC ATTACK,C
ANCHORING IN INFORMATION SECURITY STRATEGY,HF
ANNUAL LOSS EXPECTANCY (ALE),RMG
ANNUALIZED LOSS EXPECTANCY (ALE),RMG
ANOMALY DETECTION,SO;OSV
ANOMALY MODELS,SO
ANOMALY-BASED IDS,NS
ANONYMISATION,POR
ANONYMOUS COMMUNICATIONS NETWORKS,POR
ANONYMOUS FILE TRANSFER PROTOCOL (AFTP),POR
ANONYMOUS FILE TRANSFER PROTOCOL (ANONYMOUS FTP),NS
ANONYMOUS PETITIONS,POR
ANTI-ANALYSIS AND EVASION TECHNIQUES,MAT
ANTI-COLLISION PROTOCOL (RFID),HS
ANTI-MALWARE,OSV
ANTI-MALWARE - POLICIES,MAT
ANTI-MALWARE - SYSTEMS,SO
ANTI-MALWARE SOFTWARE,MAT
ANTI-MALWARE SYSTEMS INCIDENT RESPONSE AND,SO
ANTI-PHISHING TRAINING,WAM
ANTI-SPAM SOFTWARE INCIDENT RESPONSE AND,WAM
ANTI-VIRUS SOFTWARE INCIDENT RESPONSE AND,MAT
ANTIVIRUS ENGINES,SO
ANTIVIRUS SOFTWARE,MAT
API DESIGN,SS
API USABAILITY,HF
API VULNERABILITIES,SS
APP DEVELOPMENT AND VULNERABILITIES,HF
APPIFICATION,WAM
APPLE TALK - DATA STREAM PROTOCOL (ADSP),NS
APPLE TALK - SESSION PROTOCOL (ASP),NS
APPLET,WAM
APPLICATION,WAM
APPLICATION - AVAILABILITY,SO
APPLICATION - PROGRAMMING INTERFACE (API) -  SECURITY,SS
APPLICATION ARTIFACTS,F
APPLICATION CONTROLS,SSL
APPLICATION DEVELOPMENT,SSL
APPLICATION FORENSICS,F
APPLICATION GATEWAY,NS
APPLICATION ISOLATION,WAM
APPLICATION LAYER,NS
APPLICATION LAYER (OSI) - PROTOCOLS,NS
APPLICATION LAYER (OSI) - WEB-BASED LAYER,NS
APPLICATION LAYER INTERPRETATION,SO
APPLICATION LOGS: WEB SERVER LOGS AND FILES,SO
APPLICATION PROGRAMMING INTERFACE (API),SS
APPLICATION SECURITY CONTROL DEFINITION,SSL
APPLICATION SERVICE PROVIDER (ASP),DSS
APPLICATION SPECIFIC INTEGRATED CIRCUIT (ASIC),HS
APPLICATION STORES,WAM
APPLICATION SYSTEM TESTING,SSL
APPLICATION WHITELISTING,OSV
APPLICATION-LAYER PROTOCOLS,NS
APPLICATION-LAYER SECURITY,NS
APPLICATION-LEVEL PROXIES,WAM
APPLICATION-SPECIFIC INTEGRATED CIRCUITS,NS
APPLICATIONS,OSV
APPLICATIONS - ACCESS CONTROL AND,OSV
APPLICATIONS - VIRTUALIZATION,OSV
APPLICATIONS DEVELOPMENT,SSL
APPLYING LAW TO CYBERSPACE AND INFORMATION TECHNOLOGIES,LR
APPROACHES TO API BASED RECOVERY,F
APPROVED CRYPTOGRAPHIC ALGORITHMS,HS
APPROVING AUTHORITY - RESPONSIBILITIES OF,SO;RMG
APPROXIMATE ANALYSIS,F
APTS (ADVANCED PERSISTENT THREATS) ATTACKS,AB
ARCHICTECTURE - DEFINED,SO
ARCHICTECTURE - DYNAMIC INTERCONNECTIONS WITH,SO
ARCHICTECTURE - IN INFORMATION SECURITY APPROACH,RMG
ARCHICTECTURE - MEASUREMENT OF TECHNICAL SECURITY,SO
ARCHICTECTURE - OF SECURITY PROGRAMS,SO
ARCHICTECTURE - OF TECHNICAL CONTROLS,SO
ARCHITECTURAL PRINCIPLES,SO
ARCHITECTURAL THREATS,CPS
ARCHITECTURE,SSL
ARCHITECTURE (SABSA),RMG
ARCHITECTURE - BELL-LAPADULA MODEL,AAA
ARCHITECTURE - BIBA MODEL,AAA
ARCHITECTURE - BREWER-NASH MODEL,AAA
ARCHITECTURE - CHINESE WALL MODEL,AAA
ARCHITECTURE - CLARK-WILSON MODEL,AAA
ARCHITECTURE - DESIGN,SO
ARCHITECTURE - DESIGN - ACCOUNTABILITY,AAA
ARCHITECTURE - DESIGN - AUTHORIZATION,AAA
ARCHITECTURE - DESIGN - CONTROLS,SSL
ARCHITECTURE - DESIGN - DEFENSE-IN-DEPTH,SSL
ARCHITECTURE - DESIGN - DOCUMENTATION,SSL
ARCHITECTURE - DESIGN - LEAST PRIVILEGE,SSL
ARCHITECTURE - DESIGN - RISK-BASED CONTROLS,SSL
ARCHITECTURE - DESIGN - SEPARATION OF DUTIES,SSL
ARCHITECTURE - ENTERPRISE ARCHITECTURE,SSL
ARCHITECTURE - GRAHAM-DENNING MODEL,AAA
ARCHITECTURE - HARRISON-RUZZO-ULLMAN MODEL,AAA
ARCHITECTURE - INFORMATION SYSTEMS ARCHITECTURE,SSL
ARCHITECTURE - NETWORK ARCHITECTURE,NS
ARCHITECTURE - TRUST ARCHITECTURE - DMZ,NS
ARCHITECTURE - TRUST ARCHITECTURE - EXTRANETS,NS
ARCHITECTURE - TRUST ARCHITECTURE - INTERNET,WAM
ARCHITECTURE - TRUST ARCHITECTURE - INTRANETS,NS
ARCHIVING PROCEDURES,SO
ARCHTECTURAL RISK ANALYSIS,SSL
ARM TRUSTZONE,HS;OSV
ARP (ADDRESS RESOLUTION PROTOCOL),NS
ARP SPOOFING,NS
ARPSCAN,NS
ARREST OF NATURAL PERSONS IN STATE TERRITORY,LR
ARTIFACT ANALYSIS,F
ARTIFACTS AND FRAGMENTS,F
AS/NZS 4360,RMG
ASLR,SS;OSV
ASLR (ADDRESS SPACE LAYOUT RANDOMIZATION),OSV
ASP (APPLICATION SERVICE PROVIDER),DSS
ASSERTIONS,SS
ASSESS THE SECURE SOFTWARE LIFECYCLE,SSL
ASSESSING THE EVIDENCE,AAA
ASSESSMENT AND DECISION,RMG
ASSESSMENT CRITERIA,HF
ASSESSMENT FOCUS,SO
ASSESSMENTS (US NATIONAL INSTITUTE OF STANDARDS AND TECHNOLOGY),RMG
ASSET CLASSIFICATION,RMG
ASSET IDENTIFICATION - IN INFORMATION RISK MANAGEMENT PROGRAM,RMG
ASSET IDENTIFICATION - IN RISK ASSESSMENT,RMG
ASSET IDENTIFICATION - IN RISK MANAGEMENT PROCESS,RMG
ASSET MANAGEMENT,SO
ASSET OWNERSHIP,SO
ASSET SECURITY,SO
ASSET SEIZURE AND FORFEITURE,LR
ASSET VALUATION,RMG
ASSET VALUATION - INTANGIBLE,RMG
ASSET VALUATION - TANGIBLE,RMG
ASSETS,AAA;SSL;RMG
ASSISTANCE,RMG
ASSOCIATION CONTROL SERVICE ELEMENT (ACSE),NS
ASSURANCE EVALUATION CRITERIA,OSV
ASSURANCE INTERNET PROTOCOL ENCRYPTOR (HAIPE),C;NS
ASSURANCE INTERNET PROTOCOL ENCRYPTOR (HAIPE) - WORK FACTOR,C
ASSURANCE PROCESS INTEGRATION - AS OUTCOME OF SECURITY PROGRAMS,SO
ASSURANCE PROCESS INTEGRATION - AS RESULT OF INFORMATION SECURITY GOVERNANCE,RMG
ASSURANCE PROCESS INTEGRATION - IN INCIDENT MANAGEMENT,SO
ASSURANCE PROCESS INTEGRATION - IN INFORMATION SECURITY GOVERNANCE,RMG
ASSURANCE PROVIDERS,RMG
ASYMMETRIC,C
ASYMMETRIC  ADVANTAGES AND DISADVANTAGES,C
ASYMMETRIC  ALGORITHM,C
ASYMMETRIC ALGORITHM,C
ASYMMETRIC CRYPTOGRAPHY,C
ASYMMETRIC ENCRYPTION,C
ASYMMETRIC KEY,C
ASYMMETRIC KEY ENCRYPTION,C
ASYMMETRIC MODE MULTIPROCESSING,C
ASYNCHONOUS TRANSFER MODE (ATM),NS
ASYNCHRONOUS,C;DSS
ASYNCHRONOUS  TOKEN GENERATING METHOD,AAA
ASYNCHRONOUS ENCRYPTION,SS
ASYNCHRONOUS PASSWORD TOKENS,AAA
ASYNCHRONOUS TIME DIVISION MULTIPLEXING (ATDM),PLS
ASYNCHRONOUS TOKENS,AAA
ASYNCHRONOUS TRANSFER MODE (ATM),NS
ATOMICITY CONSISTENCY ISOLATION AND DURABILITY (ACID),OSV
ATTACK,MAT
ATTACK ATTRIBUTION,SO
ATTACK DETECTION,MAT
ATTACK GRAPHS,AB
ATTACK RESISTANCE ANALYSIS,SSL
ATTACK SIGNATURE,MAT
ATTACK SURFACE,OSV
ATTACK TREES,AB;RMG
ATTACK TYPES,DSS
ATTACK(S)  802.LQ,MAT
ATTACK(S)  ACCESS CONTROL (AC),AAA
ATTACK(S) - ALGEBRAIC,C
ATTACK(S) - ANALYTIC,C
ATTACK(S) - ARP,MAT
ATTACK(S) - BAITING,AB
ATTACK(S) - BETWEEN-THE-LINES,SS
ATTACK(S) - BIRTHDAY,C
ATTACK(S) - CHOSEN-CIPHERTEXT,C
ATTACK(S) - CHOSEN-PLAIN TEXT,C
ATTACK(S) - CIPHERTEXT-ONLY,C
ATTACK(S) - CROSS-SITE SCRIPTING (XSS),MAT
ATTACK(S) - CRYPTANALYTIC,C
ATTACK(S) - DICTIONARY,C
ATTACK(S) - DOUBLE-ENCAPSULATED 802.LQ/NESTED VLAN,MAT
ATTACK(S) - FRAGGLE,MAT
ATTACK(S) - IP FRAGMENTATION,MAT
ATTACK(S) - IP FRAGMENTATION - NFS,MAT
ATTACK(S) - IP FRAGMENTATION - OVERLAPPING FRAGMENT,MAT
ATTACK(S) - IP FRAGMENTATION - SMURF AND FRAGGLE,MAT
ATTACK(S) - KNOWN-PLAINTEXT,C
ATTACK(S) - MAC FLOODING,MAT
ATTACK(S) - MAN IN THE MIDDLE (MITM),C
ATTACK(S) - MULTICAST BRUTE FORCE,MAT
ATTACK(S) - PARKING LOT,AB
ATTACK(S) - PASSIVE,AB
ATTACK(S) - PHISHING,AB
ATTACK(S) - PRETEXTING,AB
ATTACK(S) - PREVENTATIVE MEASURES,MAT
ATTACK(S) - RANDOM FRAME STRESS,MAT
ATTACK(S) - REPLAY,NS
ATTACK(S) - SIDE-CHANNEL,C;SS
ATTACK(S) - SMURF,MAT
ATTACK(S) - SOCIAL ENGINEERING,AB
ATTACK(S) - SOURCE CODE MALFORMED INPUT,SS
ATTACK(S) - SPANNING-TREE,MAT
ATTACK(S) - STATE,SS
ATTACK(S) - STATISTICAL,C
ATTACK(S) - SURFACE,MAT
ATTACK(S) - SYN FLOODING,MAT
ATTACK(S) - TAGGING,MAT
ATTACK(S) - TAILGATING,AB
ATTACK(S) - TCP SEQUENCE NUMBER,NS
ATTACK(S) - TIME-OF-CHECK/TIME-OF-USE (TOC/TOU),SS
ATTACK(S) - TREE,MAT
ATTACK(S) - WORMHOLE,MAT
ATTACKABILITY IMPLICATIONS,DSS
ATTACKER MODEL,OSV
ATTACKING P2P SYSTEMS,DSS
ATTACKS,CPS;HS;POR;PLS;C;SS
ATTACKS - ACTIVE,AB
ATTACKS - ALGEBRAIC,C
ATTACKS - ANALYTIC,C
ATTACKS - BIRTHDAY,MAT
ATTACKS - CHOSEN-CIPHERTEXT,C
ATTACKS - CHOSEN-PLAINTEXT,C
ATTACKS - CIPHERTEXT-ONLY,C
ATTACKS - CREATE OR IMPORT A CODESIGNING CERTIFICATE,OSV;MAT
ATTACKS AGAINS CPSS,CPS
ATTACKS ON,MAT
ATTACKS ON DIGITAL ASSISTANTS,CPS
ATTACKS ON ETHERNET SWITCHES,NS
ATTACKS ON PHYSICAL LAYER IDENTIFICATION,PLS
ATTACKS ON QUALITY,CPS
ATTESTATION,AAA;HS
ATTRIBUTE BASED ACCESS CONTROL,AAA
ATTRIBUTE BASED CREDENTIALS,POR
ATTRIBUTE-BASED ACCESS CONTROL (ABAC),AAA
ATTRIBUTE-BASED ENCRYPTION,AAA
ATTRIBUTES - ABAC,AAA
ATTRIBUTING ACTION TO A STATE UNDER INTERNATIONAL LAW,LR
ATTRIBUTION,AB;MAT
AUDIT APPROACH,SO
AUDIT CHARTER,RMG
AUDIT DOCUMENTATION,RMG
AUDIT EVIDENCE,SO
AUDIT FINDINGS TRACKING,SO
AUDIT HOOKS,SSL
AUDIT METHODOLOGY,RMG
AUDIT OBJECTIVE,SO
AUDIT PLANNING,SO
AUDIT POLICIES,AAA
AUDIT PROGRAM,SO
AUDIT REPORT,RMG
AUDIT RISK,RMG
AUDIT STRATEGY,SO
AUDIT TRAIL,AAA;RMG
AUDIT TRAILS,SO
AUDIT TRAILS TECHNICAL CONTROLS,SO
AUDIT(S) - INTERNAL,SO
AUDIT(S) - LOGS,SO;AAA
AUDIT(S) - RECORDS,SO
AUDIT(S) - THIRD-PARTY,SO
AUDIT-BASED TRANSPARENCY,POR
AUDITING SPECIFICATIONS,POR
AUDITOR - RESPONSIBILITIES ,SO
AUDITOR - USE OF RISK REMEDIATION PLAN BY,SO
AUDITS,SO;SSL;LR
AUDITS - AND INCIDENT MANAGEMENT,SO
AUDITS - IN INFORMATION SECURITY STRATEGY,SO
AUTH (AUTHENTICATION MODULE),OSV
AUTHENTICATION,AAA;WAM
AUTHENTICATION  AUTHORIZATION - ACLS,AAA
AUTHENTICATION - BIOMETRICS,AAA
AUTHENTICATION - BIOMETRICS - BEHAVIORAL,AAA
AUTHENTICATION - BIOMETRICS - BIOMETRIC STANDARDS,AAA
AUTHENTICATION - BIOMETRICS - IMPLEMENTATION,AAA
AUTHENTICATION - BIOMETRICS - PHYSICAL USE,AAA
AUTHENTICATION - BIOMETRICS - PHYSIOLOGICAL,AAA
AUTHENTICATION - CERTIFICATE-BASED,AAA
AUTHENTICATION - CHARACTERISTICS,HS
AUTHENTICATION - COMPUTER RECOGNITION SOFTWARE,AAA
AUTHENTICATION - CONTINUOUS,AAA
AUTHENTICATION - DUAL CONTROL,AAA
AUTHENTICATION - E-MAIL,WAM
AUTHENTICATION - HEADER (AH),AAA
AUTHENTICATION - IDENTIFICATION,AAA
AUTHENTICATION - IDENTIFICATION - ACCESS LEVEL REVIEW,AAA
AUTHENTICATION - IDENTIFICATION - ACCOUNT NUMBER,AAA
AUTHENTICATION - IDENTIFICATION - CLEARANCE,AAA
AUTHENTICATION - IDENTIFICATION - METHODS,AAA
AUTHENTICATION - IDENTIFICATION - PIN,AAA
AUTHENTICATION - IDENTIFICATION - USER ID,AAA
AUTHENTICATION - IDENTIFICATION - USER REGISTRATION,AAA
AUTHENTICATION - KERBEROS,AAA
AUTHENTICATION - KNOWLEDGE,AAA
AUTHENTICATION - MULTIFACTOR,AAA
AUTHENTICATION - OTP (ONE-TIME PASSWORD),AAA
AUTHENTICATION - OUT-OF-BAND VERIFICATION,AAA
AUTHENTICATION - OWNERSHIP - PASSWORDS DYNAMIC,AAA
AUTHENTICATION - OWNERSHIP - RFID,HS
AUTHENTICATION - OWNERSHIP - SMART CARDS,AAA;HS
AUTHENTICATION - OWNERSHIP - TOKENS,AAA
AUTHENTICATION - PASSWORD-BASED,AAA
AUTHENTICATION - PASSWORDS STATIC,AAA
AUTHENTICATION - PERIODIC,AAA
AUTHENTICATION - PERIPHERAL DEVICE RECOGNITION,AAA
AUTHENTICATION - PROTOCOL,AAA
AUTHENTICATION - REVERSE,AAA
AUTHENTICATION - SMARTCARDS,NS
AUTHENTICATION - TECHNICAL CONTROLS,AAA
AUTHENTICATION - TOKENS,AAA
AUTHENTICATION - VULNERABILITIES AND,AAA
AUTHENTICATION AND IDENTIFICATION,OSV
AUTHENTICATION AND IDENTITY MANANGEMENT,SSL
AUTHENTICATION AUTHORIZATION,AAA
AUTHENTICATION AUTHORIZATION - ACCESS CONTROL MATRIX,AAA
AUTHENTICATION AUTHORIZATION - DIRECTORIES,AAA
AUTHENTICATION AUTHORIZATION - SSO,AAA
AUTHENTICATION AUTHORIZATION - SYSTEM ACCESS,AAA
AUTHENTICATION FOR CREDIT OR RESPONSIBILITY,AAA
AUTHENTICATION HEADERS,NS
AUTHENTICATION IN DISTRIBUTED SYSTEMS,AAA
AUTHENTICATION PROTOCOLS,C;PLS
AUTHENTICATION TOKENS,AAA
AUTHENTICATION VS VERIFIED ASSOCIATION,AAA
AUTHENTICITY/AUTHENTICATION,AAA
AUTHENTICODE,AAA
AUTHORISATION,AAA
AUTHORITATIVE SERVER DNS,NS
AUTHORITY IN INFORMATION RISK MANAGEMENT PROGRAM,RMG
AUTHORITY TO OPERATE (ATO),SO;RMG
AUTHORIZATION,AAA
AUTHORIZATION - ACCESS CONTROL MATRIX,AAA
AUTHORIZATION - ACLS,AAA
AUTHORIZATION - DIRECTORIES,AAA
AUTHORIZATION - DIT (DIRECTORY INFORMATION TREE),AAA
AUTHORIZATION - LDAP (LIGHTWEIGHT DIRECTORY ACCESS PROTOCOL),AAA
AUTHORIZATION - RDN (RELATIVE DISTINGUISHED NAME),AAA
AUTHORIZATION - SSO (SINGLE SIGN-ON),AAA
AUTHORIZATION - SYSTEM ACCESS,AAA
AUTHORIZATION - VULNERABILITIES AND,AAA
AUTHORIZATION ADVOCATE RESPONSIBILITIES OF,RMG
AUTHORIZATION TIMING,SO
AUTHORIZED USERS,AAA
AUTHORIZING OFFICIALS (AOS),SO;RMG
AUTHORIZING OFFICIALS - RESPONSIBILITIES OF,SO;RMG
AUTHORIZING OFFICIALS - ROLE OF IN CONTINUOUS MONITORING,SO
AUTO-SPREADING,MAT
AUTOMATED SOFTWARE DIVERSITY,SS
AUTOMATED TESTING TOOLS,MAT
AUTOMATIC LOGOUTS,HF
AUTOMATIC UPDATES IN APPS,WAM
AUTOMATIC UPDATES IN BROWSERS,WAM
AVAILABILITY,SO;MAT;DSS
AVALANCHE EFFECT - ENCRYPTION,C
AWARENESS,HF;RMG
AWARENESS - FOR ACTION PLAN,RMG
AWARENESS - IN INFORMATION SECURITY STRATEGY,RMG
AWARENESS - MEASUREMENT OF ORGANIZATIONAL,HF
AWARENESS - OF INCIDENT MANAGEMENT,HF
AWARENESS - OF RISK MANAGEMENT,HF
AWARENESS - OF SECURITY PROGRAMS,HF
AWARENESS AND EDUCATION,HF
AWARENESS METRICS,RMG