K-ANONYMITY,POR
KADEMLIA,DSS
KALI VIRTUAL - CONFIGURATION,SO
KALI VIRTUAL - DOWNLOADING,SO
KALI VIRTUAL - SCANS LAUNCHING,SO
KAOS,SSL
KASLR,OSV
KASPERSKY,SO
KDC (KEY DISTRIBUTION CENTER),C
KDFS (KEY DERIVATION FUNCTIONS),C
KEEP CREDENTIALS SAFE,SSL
KEK (KEY ENCRYPTING KEYS),C
KERBEROS,AAA;C
KERCKHOFF'S PRINCIPLE,C
KERCKHOFFS' PRINCIPLE,C
KERNEL,OSV
KERNEL MODE,OSV
KERNEL-MODE ROOTKITS,MAT
KEY,C
KEY - CLUSTERING,C
KEY - DERIVATION FUNCTIONS (KDFS),C
KEY - DISTRIBUTION,C
KEY - ESCROW,C
KEY - LENGTH,C
KEY - MANAGEMENT,C
KEY - RECOVERY,C
KEY - STORAGE,C
KEY - WRAPPING,C
KEY AGREEMENT PROTOCOLS,C
KEY CONFIRMATION,C
KEY DERIVATION FUNCTIONS,C
KEY DISTRIBUTION,DSS
KEY ENCAPSULATION MECHANISMS,C
KEY ESTABLISHMENT BASED ON CHANNEL RECIPROCITY,PLS
KEY GOAL INDICATOR (KGI),RMG
KEY PERFORMANCE INDICATOR (KPI),RMG
KEY RISK INDICATOR (KRD),RMG
KEY RISK INDICATOR - EFFECTIVENESS,RMG
KEY RISK INDICATOR - MAINTENANCE,RMG
KEY RISK INDICATOR - OPTIMIZATION,RMG
KEY RISK INDICATOR - SELECTION,RMG
KEY RISK INDICATORS (KRIS),RMG
KEY TRANSPORT,C
KEY VERIFICATION,PLS
KEY-CENTRIC ACCESS CONTROL,AAA
KEY-DERIVATION,NS
KEY-POLICY ATTRIBUTE-BASED ENCRYPTION,AAA
KEYLOGGERS,MAT
KEYS,C
KEYS - CLUSTERING,C
KEYS - ENCRYPTION,C
KEYS - ENCRYPTION - ASYMMETRIC,C
KEYS - ENCRYPTION - AUTOMATED GENERATION,C
KEYS - ENCRYPTION - CERTIFICATE REPLACEMENT,C
KEYS - ENCRYPTION - CERTIFICATE REVOCATION,C
KEYS - ENCRYPTION - CLUSTERING,C
KEYS - ENCRYPTION - DESTRUCTION,C
KEYS - ENCRYPTION - DISTRIBUTION,C
KEYS - ENCRYPTION - DUTIES,C
KEYS - ENCRYPTION - ESCROW,C
KEYS - ENCRYPTION - FINANCIAL INSTITUTIONS,C
KEYS - ENCRYPTION - KEY ENCRYPTING KEYS,C
KEYS - ENCRYPTION - KMIP,C
KEYS - ENCRYPTION - LENGTH,C
KEYS - ENCRYPTION - MANAGEMENT,C
KEYS - ENCRYPTION - PUBLIC,C
KEYS - ENCRYPTION - RANDOMNESS,C
KEYS - ENCRYPTION - RECOVERY,F
KEYS - ENCRYPTION - SPACE,C
KEYS - ENCRYPTION - STORAGE,C
KEYS - ENCRYPTION - WEB OF TRUST,C
KEYS - ENCRYPTION - WRAPPING,C
KEYS - ENCRYPTION - X-KISS,C
KEYS - ENCRYPTION - X-KRSS,C
KEYS - ENCRYPTION - XKMS,C
KEYS - FOREIGN KEYS,C
KEYS - PRIMARY,C
KEYS - PRIVATE,C
KEYSPACE,C
KEYSTREAM GENERATOR,C
KEYSTROKE DYNAMICS,AAA
KILL CHAINS,AB
KINDS,MAT
KMIP (KEY MANAGEMENT INTEROPERABILITY PROTOCOL),C
KNOWLEDGE (AUTHENTICATION),AAA
KNOWLEDGE: INTELLIGENCE AND ANALYTICS,SO
KNOWN-PLAINTEXT ATTACK,C
KOH SPEECH,CPS
KPIS,SSL
