QARMA,HS
QUALITATIVE RISK ANALYSIS,RMG
QUALITATIVE RISK ASSESSMENT,RMG
QUALITY ASSURANCE (QA),SSL
QUALITY ASSURANCE TESTING,SSL
QUALITY ASSURANCE TESTING (QAT),SSL
QUALITY OF SERVICE (QOS),NS
QUANTISATION,PLS
QUANTITATIVE RISK ANALYSIS,RMG
QUANTITATIVE RISK ASSESSMENT,RMG
QUANTITATIVE VS QUALITATIVE APPROACHES,RMG
QUANTIZED CONGESTION NOTIFICATION (QCN),NS
QUANTUM CRYPTOGRAPHY,C
QUANTUM RESISTANT ALGORITHMS,HS
QUBESOS,OSV
QUERIES DYNAMIC,SS
QUERY GENERATION,SS
QUERYING ENCRYPTED DATABASES,OSV
QUIC,NS
