X-KISS (XML KEY INFORMATION SERVICE SPECIFICATION),C
X-KRSS (XML KEY REGISTRATION SERVICE SPECIFICATION),C
X.25,NS
X.400,AAA
XACML 3.0,AAA
XDAS[CADF,SO
XEN,OSV
XKMS (XML KEY MANAGEMENT SPECIFICATION),C
XMAS SCANNING,NS
XOR (EXCLUSIVE-OR),C
XSS (CROSS-SITE SCRIPTING) ATTACKS,SS
